{
  "project_info": {
    "project_number": "921759232742",
    "firebase_url": "https://flutter-musicplayer.firebaseio.com",
    "project_id": "flutter-musicplayer",
    "storage_bucket": "flutter-musicplayer.appspot.com"
  },
  "client": [
    {
      "client_info": {
        "mobilesdk_app_id": "1:921759232742:android:ad53cd78fb725a23",
        "android_client_info": {
          "package_name": "com.example.lyricfinder"
        }
      },
      "oauth_client": [
        {
          "client_id": "921759232742-jru1gt5gvca27b4dqbon5r5g47n25990.apps.googleusercontent.com",
          "client_type": 1,
          "android_info": {
            "package_name": "com.example.lyricfinder",
            "certificate_hash": "d938aa40c44655154674592889bca115648fde8d"
          }
        },
        {
          "client_id": "921759232742-kghhes46v2q133eis5eotem4on9e2h9e.apps.googleusercontent.com",
          "client_type": 3
        },
        {
          "client_id": "921759232742-kghhes46v2q133eis5eotem4on9e2h9e.apps.googleusercontent.com",
          "client_type": 3
        }
      ],
      "api_key": [
        {
          "current_key": "AIzaSyCDY9B26AAEmqCu6dxjZSzofu6A7NCfgtQ"
        }
      ],
      "services": {
        "analytics_service": {
          "status": 1
        },
        "appinvite_service": {
          "status": 2,
          "other_platform_oauth_client": [
            {
              "client_id": "921759232742-kghhes46v2q133eis5eotem4on9e2h9e.apps.googleusercontent.com",
              "client_type": 3
            }
          ]
        },
        "ads_service": {
          "status": 2
        }
      }
    },
    {
      "client_info": {
        "mobilesdk_app_id": "1:921759232742:android:e4283d19ad82adc6",
        "android_client_info": {
          "package_name": "com.yourcompany.flutterfirebase"
        }
      },
      "oauth_client": [
        {
          "client_id": "921759232742-kghhes46v2q133eis5eotem4on9e2h9e.apps.googleusercontent.com",
          "client_type": 3
        },
        {
          "client_id": "921759232742-kghhes46v2q133eis5eotem4on9e2h9e.apps.googleusercontent.com",
          "client_type": 3
        }
      ],
      "api_key": [
        {
          "current_key": "AIzaSyCDY9B26AAEmqCu6dxjZSzofu6A7NCfgtQ"
        }
      ],
      "services": {
        "analytics_service": {
          "status": 1
        },
        "appinvite_service": {
          "status": 1,
          "other_platform_oauth_client": []
        },
        "ads_service": {
          "status": 2
        }
      }
    }
  ],
  "configuration_version": "1"
}